{
    "sensitive_data":[
       {
          "id":2,
          "file_name":"account.txt",
          "file_path":"E:/DLP_Project/Sample/account.txt",
          "data_type":"Text File",
          "data_owner":"Michael League",
          "level":"SENSITIVE",
          "scan_date":"Sun Mar 28 2021 14:25:30 GMT+0700",
          "need_encrypted":false
       },
       {
          "id":3,
          "file_name":"web_design_portfolio.txt",
          "file_path":"E:/DLP_Project/Sample/web_design_portfolio.txt",
          "data_type":"Text File",
          "data_owner":"Victor Wooten",
          "level":"NONSENSITIVE",
          "scan_date":"Sun Mar 28 2021 14:25:30 GMT+0700",
          "need_encrypted":false
       },
       {
          "id":4,
          "file_name":"Metamask.txt",
          "file_path":"E:/DLP_Project/Sample/Metamask.txt",
          "data_type":"text/plain",
          "data_owner":"Victor Wooten",
          "level":"HIGHLY SENSITIVE",
          "scan_date":"2021-05-04T01:31:01.103Z",
          "need_encrypted":false
       }
    ],
    "prev_sensitive_data":[
       {
          "id":2,
          "file_name":"account.txt",
          "file_path":"E:/DLP_Project/Sample/account.txt",
          "data_type":"Text File",
          "data_owner":"Michael League",
          "level":"SENSITIVE",
          "scan_date":"Sun Mar 28 2021 14:25:30 GMT+0700",
          "need_encrypted":false
       },
       {
          "id":3,
          "file_name":"web_design_portfolio.txt",
          "file_path":"E:/DLP_Project/Sample/web_design_portfolio.txt",
          "data_type":"Text File",
          "data_owner":"Victor Wooten",
          "level":"NONSENSITIVE",
          "scan_date":"Sun Mar 28 2021 14:25:30 GMT+0700",
          "need_encrypted":false
       },
       {
          "id":4,
          "file_name":"Metamask.txt",
          "file_path":"E:/DLP_Project/Sample/Metamask.txt",
          "data_type":"text/plain",
          "data_owner":"Victor Wooten",
          "level":"HIGHLY SENSITIVE",
          "scan_date":"2021-05-04T01:31:01.103Z",
          "need_encrypted":false
       }
    ]
 }